<svg xmlns="http://www.w3.org/2000/svg" id="Layer_1" viewBox="0 0 259.1 47.4">
  <rect id="rect11" width="45.2" height="44.9" fill="transparent"/>
  <polygon id="polygon13" fill="#c4122c" points="14.3 28 45.2 .1 45.2 0 0 0 0 12.1"/>
  <g id="g23" transform="translate(-14 -15.48)">
    <path id="path15" fill="#654027" d="M14 60.7h45.2V29.3c0-2.6-1.2-1.9-1.9-1.5L33.8 44.2s-4.9 3.4-9.9.3l-6.4-3.9c-.5-.3-1.1-.6-1.6-.8-.5-.2-1.8-1-1.8 1.3L14 60.7z" class="st2"/>
    <path id="path17" fill="#9c9d9e" d="M260.9 57.8h5.2v-1.1h-1.9v-6.4c1-1 2.3-1.7 3.7-1.8 1.5 0 2 .9 2 2.3v5.9H268v1.1h5.2v-1.1h-1.9v-6c0-2.2-1.2-3.3-3-3.3-1.6.1-3 .7-4.1 1.9v-1.6h-3.3v1.2h1.9v8h-1.9v.9zm-7.2-.8c-2.2 0-3.6-1.7-3.6-4.2s1.4-4.2 3.6-4.2 3.6 1.6 3.6 4.2-1.4 4.2-3.6 4.2m0 1.1c3 0 5-2 5-5.4s-2.1-5.4-5.1-5.4-5 2-5 5.4 2.2 5.4 5.1 5.4M243 43.8c0 .6.5 1.1 1.1 1.1.6 0 1.1-.5 1.1-1.1 0-.6-.5-1.1-1.1-1.1-.6 0-1.1.5-1.1 1.1m-1.3 14h5.2v-1.1H245v-9.1h-3.3v1.2h1.9v8h-1.9v1zm-3.5.3c.6 0 1.3-.1 1.9-.3v-1.1c-.5.2-1 .3-1.6.3-1.3 0-1.9-.5-1.9-1.9v-6.3h3.3v-1.2h-3.3v-2.7h-1.4v2.7h-1.8v1.2h1.8v6.4c-.2 1.4.8 2.8 2.2 3 .4 0 .6 0 .8-.1M225.7 57c-1 .1-2-.6-2.1-1.6v-.3c0-1.7 1.7-2.1 3.2-2.1h2.3v2.4c-1 .9-2.2 1.5-3.4 1.6m-.4 1.1c1.4-.1 2.7-.6 3.8-1.6v1.3h3.2v-1.2h-1.9v-5.8c0-2.5-1.2-3.6-3.7-3.6-1.3 0-2.5.2-3.7.7V49c1.1-.4 2.3-.7 3.5-.7 1.9 0 2.6.7 2.6 2.5v1h-2.3c-2.1 0-4.6.6-4.6 3.1-.1 1.6 1.2 3 2.8 3 .1.2.2.2.3.2M214 57c-2.3 0-3.3-2-3.3-4.2 0-2.4 1.2-4.2 3.5-4.2 1.2 0 2.3.5 3.1 1.4v5.4c-.8.9-2 1.5-3.3 1.6m-.3 1.1c1.4 0 2.7-.7 3.6-1.7v1.5h3.2v-1.2h-1.9V40.8H215V42h2.2v6.8c-.9-.9-2.1-1.4-3.4-1.4-3 0-4.6 2.4-4.6 5.4s1.6 5.3 4.5 5.3m-18.5-.3h5.2v-1.1h-1.9v-6.4c1-1 2.3-1.7 3.7-1.8 1.5 0 2 .9 2 2.3v5.9h-1.9v1.1h5.2v-1.1h-1.9v-6c0-2.2-1.2-3.3-3-3.3-1.6.1-3 .7-4.1 1.9v-1.6h-3.3v1.2h1.9v8h-1.9v.9zm-9 .3c1.5-.1 3-.7 4.1-1.8v1.5h3.3v-1.1h-1.9v-9.1h-3.4v1.2h2v6.4c-1 1-2.3 1.7-3.7 1.8-1.4 0-2-.9-2-2.3v-7h-3.3v1.2h1.9v6c0 2 1.2 3.2 3 3.2M174.6 57c-2.2 0-3.6-1.7-3.6-4.2s1.4-4.2 3.6-4.2 3.6 1.6 3.6 4.2-1.3 4.2-3.6 4.2m0 1.1c2.9 0 5-2 5-5.4s-2.1-5.4-5-5.4-5 2-5 5.4 2.1 5.4 5 5.4m-17.8-.2h6.5v-1.3h-2.7v-5.3h6.1v-1.2h-6.1v-5.8h6.4v3h1.3v-4.2h-11.5v1.2h2.3v12.3h-2.3v1.3z"/>
    <path id="path19" fill="#654027" d="M143.6 60.9c-1.6 0-2.8-.4-2.8-1.5 0-.5.3-1 .7-1.3 2.1.4 4.8.1 4.8 1.4.1.3-.1 1.4-2.7 1.4m0-11.9c1.2-.1 2.2.8 2.2 2s-.8 2.2-2 2.2c-1.2.1-2.2-.8-2.2-2v-.1c-.1-1 .6-2 1.6-2.1h.4m-.1 13.9c4.4 0 5.5-1.9 5.5-3.6 0-4.3-7.4-2.5-7.4-4 0-.2.1-.3.2-.4.6.2 1.2.3 1.8.2 3 0 4.5-1.8 4.5-4 0-.6-.1-1.2-.4-1.7l1.8.1v-2.2h-4.1c-.6-.2-1.2-.3-1.8-.3-3 0-4.5 1.8-4.5 4 0 1.2.5 2.4 1.5 3.1-.7.4-1.2 1.2-1.3 2 0 .5.2 1 .7 1.3-.9.4-1.5 1.4-1.5 2.4 0 1.7 1.3 3.1 5 3.1m-19-5.1h5.9v-2.1h-1.6v-5.2c.8-.7 1.8-1.1 2.9-1.2 1 0 1.3.5 1.3 1.3v5.1h-1.6v2.1h5.9v-2.1h-1.6v-5.3c.2-1.6-.9-3-2.5-3.2h-.6c-1.4.1-2.8.6-3.9 1.6v-1.3h-4.2v2.1h1.6v6.2h-1.6v2zM117.7 44c0 1 .8 1.9 1.9 1.9 1 0 1.9-.8 1.9-1.9s-.8-1.9-1.9-1.9c-1 0-1.9.9-1.9 1.9m-.9 13.8h5.9v-2.1h-1.6v-8.3h-4.3v2.1h1.6v6.2h-1.6v2.1zm-14.5 0h5.9v-2.1h-1.6v-5.2c.8-.7 1.8-1.1 2.9-1.2 1 0 1.3.5 1.3 1.3v5.1h-1.6v2.1h5.9v-2.1h-1.6v-5.3c.2-1.6-.9-3-2.5-3.2h-.6c-1.4.1-2.8.6-3.9 1.6v-1.3h-4.2v2.1h1.6v6.2h-1.6v2zM95.5 44c0 1 .8 1.9 1.9 1.9 1 0 1.9-.8 1.9-1.9 0-1-.8-1.9-1.9-1.9-1 0-1.9.9-1.9 1.9m-1 13.8h5.9v-2.1h-1.6v-8.3h-4.3v2.1h1.6v6.2h-1.6v2.1zm-22.4 0h6.2v-2.2h-1.8l.3-9.8L81 56.6h2.3l4.2-10.8.3 9.8H86v2.2h6.2v-2.2h-1.8L90 45.3h2v-2.2h-6.1l-3.6 9.8-3.6-9.8h-6.2v2.2h1.8L74 55.6h-1.8l-.1 2.2z" class="st2"/>
    <path id="path21" fill="#654027" d="M194.8 24c1.6 0 2.1 1.2 2.2 2.5h-4.6c.1-1.3.8-2.5 2.4-2.5m.3 9c1.3 0 2.6-.3 3.8-.9V30c-1 .6-2.2 1-3.4 1-1.5.2-2.9-.9-3.1-2.4v-.1h7c.1-.4.1-.8.1-1.2 0-2.9-1.5-5.2-4.8-5.2s-5.1 2.3-5.1 5.5 1.8 5.4 5.5 5.4m-13.1-.3h5.9v-2.1h-1.6v-15H182v2.2h1.6v12.8H182v2.1zm-8.2-1.8h-1v-6.2c.7-.4 1.4-.6 2.2-.6 1.9 0 2.5 1.5 2.5 3.3 0 2.2-1.2 3.5-3.7 3.5m.2 2c4 0 6.3-1.8 6.3-5.7 0-3.2-1.7-5.3-4.6-5.3-1 0-1.9.2-2.8.7v-7.1h-4.3v2.1h1.6v14.9c1.2.3 2.5.5 3.8.4m-11.3-14c0 1 .9 1.9 1.9 1.9 1 0 1.9-.9 1.9-1.9 0-1-.8-1.9-1.9-1.9-1.1 0-1.9.8-1.9 1.9m-1 13.8h5.9v-2.1H166v-8.3h-4.3v2.1h1.6v6.2h-1.6v2.1zm-6.3.3c3.5 0 4.3-1.6 4.3-3.2 0-4-5.7-2.8-5.7-4.8 0-.5.4-1 1.6-1 .5 0 1 .1 1.5.1v1.4h2.2v-3c-1.2-.4-2.4-.6-3.7-.6-2.9 0-4.2 1.3-4.2 3.2 0 3.9 5.7 2.9 5.7 4.7 0 .5-.5 1-1.7 1-.7 0-1.3-.1-1.9-.2v-1.3h-2.2v2.9c1.3.6 2.7.7 4.1.8m-18.7-.3h5.9v-2.1H141v-5.2c.8-.7 1.8-1.1 2.9-1.2 1 0 1.3.5 1.3 1.4v5.1h-1.6v2.1h5.9v-2.1h-1.6v-5.3c0-2.1-1.2-3.2-3.1-3.2-1.4.1-2.7.6-3.8 1.6v-1.3h-4.2v2.1h1.6v6.2h-1.6l-.1 1.9zm-7.5-1.8c-1.9 0-2.7-1.5-2.7-3.4s.8-3.4 2.7-3.4 2.7 1.5 2.7 3.4-.8 3.4-2.7 3.4m0 2c2.8.2 5.3-1.9 5.5-4.7v-.8c-.2-3-2.8-5.4-5.8-5.2-2.8.2-5 2.4-5.2 5.2-.3 2.8 1.8 5.3 4.6 5.6.3 0 .6 0 .9-.1m-12.8-8.8c1.9 0 2.6 1.6 2.6 3.4 0 2-.9 3.4-2.8 3.4-.7 0-1.4-.2-2-.7V25c.6-.6 1.4-.9 2.2-.9m-6.5 13.4h6.2v-2.2h-1.9v-3.2c.8.6 1.8.9 2.8.9 3 0 4.9-2.2 4.9-5.5S120 22 117.2 22c-1.2 0-2.4.5-3.2 1.4v-1.1h-4.1v2.1h1.6v11h-1.6v2.1zm-6-4.5c3.5 0 4.3-1.6 4.3-3.2 0-4-5.8-2.8-5.8-4.8 0-.5.4-1 1.6-1 .5 0 1 .1 1.5.1v1.4h2.2v-3c-1.2-.4-2.5-.6-3.8-.6-2.8 0-4.2 1.3-4.2 3.2 0 3.9 5.7 2.9 5.7 4.7 0 .5-.5 1-1.7 1-.7 0-1.3-.1-1.9-.2v-1.3h-2.1v2.9c1.4.5 2.8.7 4.2.8m-10.8-9c1.6 0 2.1 1.2 2.2 2.5h-4.6c.1-1.3.8-2.5 2.4-2.5m.3 9c1.3 0 2.6-.3 3.8-1v-2.1c-1 .6-2.2 1-3.4 1-1.5.2-2.9-.9-3.1-2.4v-.1h7c.1-.4.1-.8.1-1.2 0-2.9-1.5-5.2-4.8-5.2s-5.1 2.3-5.1 5.5 1.8 5.5 5.5 5.5M77 25.1v-4.9h2.4c2.3 0 3.1 1.2 3.1 2.5s-.8 2.5-3.1 2.5l-2.4-.1zm-4.8 7.6H79v-2.2h-2v-3.2h2.6l3 5.4h3.7v-2.2h-1.8l-2.2-3.9c1.8-.5 3-2.1 3-3.9 0-2.2-1.6-4.6-6-4.6h-7.1v2.2h2v10.2h-2v2.2z" class="st2"/>
  </g>
</svg>
