<?xml version="1.0" encoding="utf-8"?>
<!-- Generator: Adobe Illustrator 22.0.1, SVG Export Plug-In . SVG Version: 6.00 Build 0)  -->
<svg version="1.1" id="Layer_1" xmlns="http://www.w3.org/2000/svg" xmlns:xlink="http://www.w3.org/1999/xlink" x="0px" y="0px"
	 viewBox="0 0 50 50" style="enable-background:new 0 0 50 50;" xml:space="preserve">
<style type="text/css">
	.st0{fill:#F0A846;}
	.st1{fill:#FFFFFF;stroke:#FFFFFF;stroke-width:5.533471e-02;stroke-miterlimit:10;}
	.st2{fill:#F49A00;}
	.st3{fill:#FFFFFF;}
</style>
<g id="EEE_icon">
	<g>
		<g>
			<ellipse class="st0" cx="25" cy="24.8" rx="24.3" ry="24.3"/>
			<path class="st1" d="M25,49.6c-13.7,0-24.8-11.1-24.8-24.8S11.3,0,25,0s24.8,11.1,24.8,24.8S38.7,49.6,25,49.6z M25,1.1
				C11.9,1.1,1.2,11.7,1.2,24.9S11.9,48.7,25,48.7c13.1,0,23.8-10.7,23.8-23.8S38.2,1.1,25,1.1z"/>
		</g>
		<path class="st2" d="M23.1,11.4h-3.8c-0.3,0-0.6,0.3-0.6,0.6c0,0.3,0.3,0.6,0.6,0.6h3.8c0.3,0,0.6-0.3,0.6-0.6
			C23.7,11.7,23.5,11.4,23.1,11.4z"/>
		<path class="st2" d="M25.7,11.4c-0.3,0-0.6,0.3-0.6,0.6c0,0.3,0.3,0.6,0.6,0.6s0.6-0.3,0.6-0.6C26.3,11.7,26.1,11.4,25.7,11.4z"/>
		<g>
			<g>
				<path class="st3" d="M30.7,8.5H19.2c-2,0-3.6,1.6-3.6,3.6v24.4c0,2,1.6,3.6,3.6,3.6h11.5c2,0,3.6-1.6,3.6-3.6V12.1
					C34.3,10.1,32.7,8.5,30.7,8.5z M25,38.6c-1.2,0-2.1-1-2.1-2.1c0-1.2,1-2.1,2.1-2.1c1.2,0,2.1,1,2.1,2.1
					C27.1,37.7,26.1,38.6,25,38.6z M31.4,32.9H18.5V12.8h12.9V32.9z"/>
			</g>
		</g>
	</g>
</g>
</svg>
