<?xml version="1.0" encoding="utf-8"?>
<!-- Generator: Adobe Illustrator 22.0.1, SVG Export Plug-In . SVG Version: 6.00 Build 0)  -->
<svg version="1.1" id="left-line" xmlns="http://www.w3.org/2000/svg" xmlns:xlink="http://www.w3.org/1999/xlink" x="0px" y="0px"
	 viewBox="0 0 50 58.1" style="enable-background:new 0 0 50 58.1;" xml:space="preserve">
<style type="text/css">
	.st0{fill:none;stroke:#FFFFFF;stroke-width:1.6;stroke-miterlimit:10;}
	.st1{fill:#FFFFFF;stroke:#FFFFFF;stroke-miterlimit:10;}
</style>
<line class="st0" x1="23.6" y1="1" x2="23.6" y2="54.3"/>
<path class="st1" d="M20.6,54.1c0,1.6,1.4,3,3,3s3-1.4,3-3c0-1.6-1.4-3-3-3C22,51.1,20.6,52.5,20.6,54.1z"/>
</svg>
