<?xml version="1.0" encoding="utf-8"?>
<!-- Generator: Adobe Illustrator 22.0.1, SVG Export Plug-In . SVG Version: 6.00 Build 0)  -->
<svg version="1.1" id="left-line" xmlns="http://www.w3.org/2000/svg" xmlns:xlink="http://www.w3.org/1999/xlink" x="0px" y="0px"
	 viewBox="0 0 148.4 130" style="enable-background:new 0 0 148.4 130;" xml:space="preserve">
<style type="text/css">
	.st0{fill:none;stroke:#FFFFFF;stroke-width:1.6;stroke-miterlimit:10;}
	.st1{fill:#FFFFFF;stroke:#FFFFFF;stroke-miterlimit:10;}
</style>
<g id="policy-makers-line">
	<g>
		<g>
			<polyline class="st0" points="0.3,53.6 68.2,53.6 144.4,127.6 			"/>
			<g>
				<path class="st1" d="M142.6,129.3c1,0.9,2.5,0.9,3.4-0.1s0.9-2.5-0.1-3.4s-2.5-0.9-3.4,0.1C141.7,126.8,141.7,128.3,142.6,129.3
					z"/>
			</g>
		</g>
	</g>
</g>
</svg>
