<?xml version="1.0" encoding="utf-8"?>
<!-- Generator: Adobe Illustrator 22.0.1, SVG Export Plug-In . SVG Version: 6.00 Build 0)  -->
<svg version="1.1" id="Layer_1" xmlns="http://www.w3.org/2000/svg" xmlns:xlink="http://www.w3.org/1999/xlink" x="0px" y="0px"
	 viewBox="0 0 50 50" style="enable-background:new 0 0 50 50;" xml:space="preserve">
<style type="text/css">
	.st0{fill:#FFFFFF;}
	.st1{fill:#397992;}
</style>
<g id="policy-makers-icon">
	<g>
		<path class="st0" d="M17.9,3.1c0,0-6-0.6-7.1,0s-2.5,2.2-3,3s-0.2,9-0.2,9v21.5H0.7c0,0,0-0.5,0,4.1s3.2,6.3,6.9,6.3
			s19.4,0,25.2,0s7.6-4.6,7.6-6.5s0-25.9,0-25.9h9c0,0,0-5.2,0-8.2s-5.4-3.6-5.4-3.6L17.9,3.1z"/>
		<g>
			<path class="st1" d="M44.8,2.4H12.3c-2.8,0-5,2.2-5,4.9L7.1,36H0.7C0.3,36,0,36.3,0,36.8v3.9c0,3.6,2.9,6.6,6.4,6.8h0.1v0.1h27.2
				v-0.1h0.1c0.1,0,0.2,0,0.3,0c0.1,0,0.2,0,0.2,0c3.8,0,6.8-3.1,6.8-6.9V15.6h8.3c0.4,0,0.7-0.4,0.7-0.8V7.6
				C50,4.8,47.7,2.5,44.8,2.4z M6.7,46.2c-2.9,0-5.3-2.4-5.3-5.4v-3.2h26v3.2c0,1.8,0.7,3.6,2,4.9c0.1,0.1,0.1,0.1,0.2,0.2
				c0.1,0.1,0.2,0.2,0.3,0.3l0.1,0.2L6.7,46.2L6.7,46.2z M39.5,7.7v33.1c0,2.9-2.4,5.4-5.3,5.4s-5.3-2.5-5.3-5.4v-3.9
				c0-0.4-0.3-0.8-0.8-0.8H8.6V36L8.8,7.4c0-1.9,1.6-3.6,3.6-3.6h28.8L41,4C40.1,5.1,39.5,6.4,39.5,7.7z M48.5,7.7v6.5H41V7.7
				c0-2.1,1.8-3.8,3.8-3.8l0,0C46.9,3.9,48.5,5.6,48.5,7.7L48.5,7.7L48.5,7.7L48.5,7.7z"/>
			<path class="st1" d="M19,22.3L19,22.3l4.2,2.9c0.2,0.2,0.5,0.2,0.8,0l4.2-2.9c1.4-1,2.5-3,2.5-4.8v-5.8c0-0.3-0.2-0.5-0.4-0.7
				l-6.4-3.2c-0.1-0.1-0.2-0.1-0.3-0.1c-0.1,0-0.2,0-0.3,0.1L16.8,11c-0.2,0.2-0.4,0.4-0.4,0.7v5.8C16.5,19.3,17.6,21.3,19,22.3z
				 M18,12.2L18,12.2l5.6-2.8l0,0l5.6,2.8v5.3c0,1.2-0.8,2.9-1.9,3.6l-3.8,2.5h-0.1l-3.7-2.5c-1-0.7-1.9-2.3-1.9-3.6L18,12.2
				L18,12.2z"/>
			<path class="st1" d="M22.3,18.7c0.2,0.2,0.3,0.2,0.5,0.2s0.4-0.1,0.5-0.2l3.2-3.2c0.2-0.2,0.2-0.3,0.2-0.5c0-0.2-0.1-0.4-0.2-0.5
				c-0.2-0.2-0.3-0.2-0.5-0.2l0,0c-0.2,0-0.4,0.1-0.5,0.2l-2.7,2.7L21.8,16c-0.2-0.2-0.3-0.2-0.5-0.2l0,0c-0.2,0-0.4,0.1-0.5,0.2
				c-0.3,0.3-0.3,0.8,0,1L22.3,18.7z"/>
			<path class="st1" d="M14.2,29.1h19.5c0.4,0,0.8-0.3,0.8-0.8c0-0.4-0.3-0.8-0.8-0.8H14.2c-0.4,0-0.8,0.3-0.8,0.8
				C13.5,28.8,13.8,29.1,14.2,29.1z"/>
			<path class="st1" d="M14.2,32.9h19.5c0.4,0,0.8-0.3,0.8-0.8c0-0.4-0.3-0.8-0.8-0.8H14.2c-0.4,0-0.8,0.3-0.8,0.8
				C13.5,32.6,13.8,32.9,14.2,32.9z"/>
		</g>
	</g>
</g>
</svg>
