<?xml version="1.0" encoding="utf-8"?>
<!-- Generator: Adobe Illustrator 22.0.1, SVG Export Plug-In . SVG Version: 6.00 Build 0)  -->
<svg version="1.1" id="Layer_1" xmlns="http://www.w3.org/2000/svg" xmlns:xlink="http://www.w3.org/1999/xlink" x="0px" y="0px"
	 viewBox="0 0 50 50" style="enable-background:new 0 0 50 50;" xml:space="preserve">
<style type="text/css">
	.st0{fill:#972E63;stroke:#FFFFFF;stroke-width:5.533471e-02;stroke-miterlimit:10;}
	.st1{fill:#FFFFFF;stroke:#FFFFFF;stroke-width:5.533471e-02;stroke-miterlimit:10;}
	.st2{fill:#FFFFFF;}
</style>
<g id="RE_icon">
	<g>
		<ellipse class="st0" cx="25" cy="25.1" rx="24.5" ry="24.5"/>
		<path class="st1" d="M25,50C11.2,50,0,38.8,0,25S11.2,0,25,0s25,11.2,25,25C50,38.8,38.8,50,25,50z M25,1.1c-13.2,0-24,10.8-24,24
			s10.8,24,24,24s24-10.8,24-24C49,11.8,38.2,1.1,25,1.1z"/>
		<path class="st2" d="M35.2,14.5c-3.5,0-6.4,2.9-6.4,6.4v1.3h2.5v-1.3c0-2.1,1.7-3.9,3.9-3.9s3.9,1.7,3.9,3.9s-1.7,3.9-3.9,3.9
			H10.9v2.5h24.3c3.5,0,6.4-2.9,6.4-6.4S38.8,14.5,35.2,14.5z"/>
		<path class="st2" d="M26.3,17v-1.3c0-2.8-2.3-5.1-5.1-5.1S16,12.9,16,15.8V17h2.5v-1.3c0-1.4,1.1-2.5,2.5-2.5
			c1.4,0,2.5,1.1,2.5,2.5V17c0,1.4-1.1,2.5-2.5,2.5H10.9v2.5h10.2C24,22.2,26.3,19.9,26.3,17z"/>
		<path class="st2" d="M31.4,35v1.3c0,1.4-1.1,2.5-2.5,2.5c-1.4,0-2.5-1.1-2.5-2.5V35h-2.5v1.3c0,2.8,2.3,5.1,5.1,5.1
			s5.1-2.3,5.1-5.1V35c0-2.8-2.3-5.1-5.1-5.1h-18v2.5h17.9C30.3,32.5,31.4,33.6,31.4,35z"/>
	</g>
</g>
</svg>
